M48
;Layer_Color=9474304
;FILE_FORMAT=4:4
METRIC,LZ
;TYPE=PLATED
T2F00S00C0.8000
T5F00S00C1.0000
%
G90
G05
T02
G00X-0133731Y0010536
M15
G01Y0011816
M16
G00X-0128651Y0010536
M15
G01Y0011816
M16
G00X-0123571Y0010536
M15
G01Y0011816
M16
T05
G00X-0102039Y0080778
M15
G01Y0081528
M16
G00X-0096139Y0080778
M15
G01Y0081528
M16
G00X-0086939Y0080778
M15
G01Y0081528
M16
G00X-0081039Y0080778
M15
G01Y0081528
M16
M17
M30
