M48
;Layer_Color=9474304
;FILE_FORMAT=4:4
METRIC,LZ
;TYPE=PLATED
T1F00S00C0.8000
T3F00S00C0.9000
T4F00S00C1.0000
T6F00S00C1.0160
T7F00S00C1.0500
T8F00S00C1.2000
T9F00S00C1.3000
T10F00S00C1.5000
T11F00S00C2.0000
T12F00S00C3.3000
%
T01
X-0029083Y0054241
Y0064241
T03
X-0140081Y00277114
X-0137541
X-0135001
X-0132461
X-0129921
X-0127381
X-0124841
X-0122301
X-0119761
Y00505714
X-0122301
X-0124841
X-0127381
X-0129921
X-0132461
X-0135001
X-0137541
X-0140081
X-0142621
Y00277114
T04
X-011825Y000575
X-011375
X-0109728Y0004352
Y0014952
X-011375Y0016222
Y001225
X-011825
Y0016222
Y0022722
X-011375
X-0097883Y0017653
X-0087283
X-0073354Y0020574
Y0022352
X-0038354Y0028448
Y0036068
Y0043688
Y0051308
Y0058928
X-0073354Y005969
Y0057912
Y0056134
Y0054356
Y0052578
Y0049022
Y0047244
Y0043688
Y004191
Y0038354
Y0036576
Y003302
Y0031242
Y0027686
Y0025908
Y002413
X-0087283Y0028829
X-0097883
Y0039497
X-0087283
X-0073354Y0061468
Y0063246
Y0065024
Y0066802
X-006691Y0071628
X-0088265Y0090805
X-0098265Y0095805
X-004191Y0071628
T06
X-0101346Y000325
Y0010414
X-00965Y0056
X-0092837
Y0061849
X-007747Y004699
X-011375Y0046568
X-01109345Y0056007
X-011375Y0061849
X-0124841Y0038481
Y0030267
X-007747Y00691153
T07
X-0098108Y0020828
X-0088568
Y0032004
X-0098108
Y0042799
X-0088568
T08
X-0094107Y0006477
X-0090297
X-0086487
T09
X-0072517Y0080518
Y0085598
Y0090678
Y0095758
T10
X-001016Y0038481
Y0043561
Y0048641
Y0053721
X-0138303Y0083312
Y0088392
Y0093472
T11
X-001778Y0077515
Y0087515
T12
X-0055854Y0022688
Y0064688
M30
